Spotify: 2017 Analysis
…
names(spotify)[2] <- "name"

spotify %>%
  filter(Region=="us") %>%
  group_by(name) %>%
  dplyr::summarise(tot_str = sum(Streams)) -> us_stream
us_stream

## # A tibble: 1,625 x 2
##    name                                                            tot_str
##    <chr>                                                             <int>
##  1 ""                                                              6504755
##  2 'Till I Collapse                                               36493752
##  3 (Don't Fear) The Reaper                                          543066
##  4 (I Can't Get No) Satisfaction - Mono Version / Remastered 2002   144843
##  5 (Intro) I'm so Grateful                                          208805
##  6 (Not) The One                                                    195340
##  7 (What A) Wonderful World - Remastered                            145484
##  8 ...Baby One More Time - Recorded at Spotify Studios NYC          247148
##  9 ...Ready For It?                                               52971370
## 10 0 To 100 / The Catch Up                                          665904
## # ... with 1,615 more rows
…
